<svg width="99" height="99" viewBox="0 0 99 99" fill="none" xmlns="http://www.w3.org/2000/svg">
<path d="M24.7539 78.375C24.7539 82.9125 28.4664 86.625 33.0039 86.625H66.0039C70.5414 86.625 74.2539 82.9125 74.2539 78.375V28.875H24.7539V78.375ZM78.3789 16.5H63.9414L59.8164 12.375H39.1914L35.0664 16.5H20.6289V24.75H78.3789V16.5Z" fill="#C2CFE0"/>
</svg>
