<svg width="32" height="32" viewBox="0 0 32 32" fill="none" xmlns="http://www.w3.org/2000/svg">
<circle cx="16" cy="16" r="12" fill="white"/>
<path d="M16 4C9.383 4 4 9.383 4 16C4 22.617 9.383 28 16 28C22.617 28 28 22.617 28 16C28 9.383 22.617 4 16 4ZM22.698 23.404C22.034 21.431 20.198 20 18 20H14C11.802 20 9.968 21.432 9.304 23.405C7.281 21.574 6 18.937 6 16C6 10.486 10.486 6 16 6C21.514 6 26 10.486 26 16C26 18.936 24.72 21.573 22.698 23.404Z" fill="#4A90CA"/>
<path d="M16 9C13.791 9 12 10.791 12 13V14C12 16.209 13.791 18 16 18C18.209 18 20 16.209 20 14V13C20 10.791 18.209 9 16 9Z" fill="#A5C8E5"/>
<circle cx="16" cy="16" r="15" stroke="#4A90CA" stroke-width="2"/>
</svg>
