{
    "id": "UserApplicationItem",
    "description": null,
    "parentClass": null,
    "listingParentClass": null,
    "useTraits": null,
    "listingUseTraits": null,
    "allowInherit": false,
    "allowVariants": false,
    "showVariants": false,
    "implementsInterfaces": null,
    "layoutDefinitions": {
        "fieldtype": "panel",
        "labelWidth": 100,
        "layout": null,
        "border": false,
        "name": "pimcore_root",
        "type": null,
        "region": null,
        "title": null,
        "width": null,
        "height": null,
        "collapsible": false,
        "collapsed": false,
        "bodyStyle": null,
        "datatype": "layout",
        "permissions": null,
        "childs": [
            {
                "fieldtype": "tabpanel",
                "border": false,
                "tabPosition": null,
                "name": "Layout",
                "type": null,
                "region": null,
                "title": "Layout",
                "width": null,
                "height": null,
                "collapsible": false,
                "collapsed": false,
                "bodyStyle": "",
                "datatype": "layout",
                "permissions": null,
                "childs": [
                    {
                        "fieldtype": "panel",
                        "labelWidth": 100,
                        "layout": null,
                        "border": false,
                        "name": "Information",
                        "type": null,
                        "region": null,
                        "title": "Information",
                        "width": null,
                        "height": null,
                        "collapsible": false,
                        "collapsed": false,
                        "bodyStyle": "",
                        "datatype": "layout",
                        "permissions": null,
                        "childs": [
                            {
                                "fieldtype": "manyToOneRelation",
                                "width": "",
                                "assetUploadPath": "",
                                "relationType": true,
                                "queryColumnType": {
                                    "id": "int(11)",
                                    "type": "enum('document','asset','object')"
                                },
                                "phpdocType": "\\Pimcore\\Model\\Document\\Page | \\Pimcore\\Model\\Document\\Snippet | \\Pimcore\\Model\\Document | \\Pimcore\\Model\\Asset | \\Pimcore\\Model\\DataObject\\AbstractObject",
                                "objectsAllowed": true,
                                "assetsAllowed": false,
                                "assetTypes": [],
                                "documentsAllowed": false,
                                "documentTypes": [],
                                "classes": [
                                    {
                                        "classes": "Application"
                                    }
                                ],
                                "pathFormatterClass": "",
                                "name": "Application",
                                "title": "Application",
                                "tooltip": "",
                                "mandatory": false,
                                "noteditable": false,
                                "index": false,
                                "locked": false,
                                "style": "",
                                "permissions": null,
                                "datatype": "data",
                                "invisible": false,
                                "visibleGridView": false,
                                "visibleSearch": false
                            },
                            {
                                "fieldtype": "input",
                                "width": null,
                                "defaultValue": null,
                                "queryColumnType": "varchar",
                                "columnType": "varchar",
                                "columnLength": 190,
                                "phpdocType": "string",
                                "regex": "",
                                "unique": false,
                                "showCharCount": false,
                                "name": "RoleId",
                                "title": "Role ID",
                                "tooltip": "",
                                "mandatory": false,
                                "noteditable": false,
                                "index": false,
                                "locked": false,
                                "style": "",
                                "permissions": null,
                                "datatype": "data",
                                "relationType": false,
                                "invisible": false,
                                "visibleGridView": false,
                                "visibleSearch": false,
                                "defaultValueGenerator": ""
                            },
                            {
                                "fieldtype": "input",
                                "width": null,
                                "defaultValue": null,
                                "queryColumnType": "varchar",
                                "columnType": "varchar",
                                "columnLength": 190,
                                "phpdocType": "string",
                                "regex": "",
                                "unique": false,
                                "showCharCount": false,
                                "name": "SalesOfficeId",
                                "title": "Sales Office ID",
                                "tooltip": "",
                                "mandatory": false,
                                "noteditable": false,
                                "index": false,
                                "locked": false,
                                "style": "",
                                "permissions": null,
                                "datatype": "data",
                                "relationType": false,
                                "invisible": false,
                                "visibleGridView": false,
                                "visibleSearch": false,
                                "defaultValueGenerator": ""
                            }
                        ],
                        "locked": false,
                        "icon": ""
                    }
                ],
                "locked": false
            }
        ],
        "locked": false,
        "icon": null
    },
    "icon": null,
    "previewUrl": null,
    "group": "Customer",
    "linkGeneratorReference": null,
    "compositeIndices": null,
    "propertyVisibility": {
        "grid": {
            "id": true,
            "key": false,
            "path": true,
            "published": true,
            "modificationDate": true,
            "creationDate": true
        },
        "search": {
            "id": true,
            "key": false,
            "path": true,
            "published": true,
            "modificationDate": true,
            "creationDate": true
        }
    }
}