{
    "id": "Role",
    "description": null,
    "parentClass": null,
    "listingParentClass": null,
    "useTraits": null,
    "listingUseTraits": null,
    "allowInherit": false,
    "allowVariants": false,
    "showVariants": false,
    "implementsInterfaces": null,
    "layoutDefinitions": {
        "fieldtype": "panel",
        "labelWidth": 100,
        "layout": null,
        "border": false,
        "name": "pimcore_root",
        "type": null,
        "region": null,
        "title": null,
        "width": null,
        "height": null,
        "collapsible": false,
        "collapsed": false,
        "bodyStyle": null,
        "datatype": "layout",
        "permissions": null,
        "childs": [
            {
                "fieldtype": "tabpanel",
                "border": false,
                "tabPosition": null,
                "name": "Layout",
                "type": null,
                "region": null,
                "title": "",
                "width": null,
                "height": null,
                "collapsible": false,
                "collapsed": false,
                "bodyStyle": "",
                "datatype": "layout",
                "permissions": null,
                "childs": [
                    {
                        "fieldtype": "panel",
                        "labelWidth": 100,
                        "layout": null,
                        "border": false,
                        "name": "Info",
                        "type": null,
                        "region": null,
                        "title": "Info",
                        "width": null,
                        "height": null,
                        "collapsible": false,
                        "collapsed": false,
                        "bodyStyle": "",
                        "datatype": "layout",
                        "permissions": null,
                        "childs": [
                            {
                                "fieldtype": "input",
                                "width": null,
                                "defaultValue": null,
                                "queryColumnType": "varchar",
                                "columnType": "varchar",
                                "columnLength": 190,
                                "phpdocType": "string",
                                "regex": "",
                                "unique": false,
                                "showCharCount": false,
                                "name": "RoleId",
                                "title": "Role Id",
                                "tooltip": "",
                                "mandatory": false,
                                "noteditable": true,
                                "index": false,
                                "locked": false,
                                "style": "",
                                "permissions": null,
                                "datatype": "data",
                                "relationType": false,
                                "invisible": false,
                                "visibleGridView": false,
                                "visibleSearch": false,
                                "defaultValueGenerator": ""
                            },
                            {
                                "fieldtype": "localizedfields",
                                "phpdocType": "\\Pimcore\\Model\\DataObject\\Localizedfield",
                                "childs": [
                                    {
                                        "fieldtype": "input",
                                        "width": null,
                                        "defaultValue": null,
                                        "queryColumnType": "varchar",
                                        "columnType": "varchar",
                                        "columnLength": 190,
                                        "phpdocType": "string",
                                        "regex": "",
                                        "unique": false,
                                        "showCharCount": false,
                                        "name": "RoleName",
                                        "title": "Role Name",
                                        "tooltip": "",
                                        "mandatory": false,
                                        "noteditable": false,
                                        "index": false,
                                        "locked": false,
                                        "style": "",
                                        "permissions": null,
                                        "datatype": "data",
                                        "relationType": false,
                                        "invisible": false,
                                        "visibleGridView": false,
                                        "visibleSearch": false,
                                        "defaultValueGenerator": ""
                                    }
                                ],
                                "name": "localizedfields",
                                "region": null,
                                "layout": null,
                                "title": "",
                                "width": "",
                                "height": "",
                                "maxTabs": null,
                                "labelWidth": null,
                                "border": false,
                                "provideSplitView": false,
                                "tabPosition": null,
                                "hideLabelsWhenTabsReached": null,
                                "fieldDefinitionsCache": null,
                                "tooltip": "",
                                "mandatory": false,
                                "noteditable": false,
                                "index": null,
                                "locked": false,
                                "style": "",
                                "permissions": null,
                                "datatype": "data",
                                "relationType": false,
                                "invisible": false,
                                "visibleGridView": true,
                                "visibleSearch": true
                            },
                            {
                                "fieldtype": "multiselect",
                                "options": [],
                                "width": "",
                                "height": 500,
                                "maxItems": "",
                                "renderType": "list",
                                "optionsProviderClass": "@PassportBundle\\Service\\OptionsProvider\\RolePermissionsOptionsProvider",
                                "optionsProviderData": "",
                                "queryColumnType": "text",
                                "columnType": "text",
                                "phpdocType": "array",
                                "dynamicOptions": false,
                                "name": "ApplicationPermissions",
                                "title": "Permissions",
                                "tooltip": "",
                                "mandatory": false,
                                "noteditable": false,
                                "index": false,
                                "locked": false,
                                "style": "",
                                "permissions": null,
                                "datatype": "data",
                                "relationType": false,
                                "invisible": false,
                                "visibleGridView": false,
                                "visibleSearch": false
                            }
                        ],
                        "locked": false,
                        "icon": ""
                    }
                ],
                "locked": false
            }
        ],
        "locked": false,
        "icon": null
    },
    "icon": "\/bundles\/pimcoreadmin\/img\/flat-color-icons\/manager.svg",
    "previewUrl": null,
    "group": null,
    "linkGeneratorReference": null,
    "compositeIndices": null,
    "propertyVisibility": {
        "grid": {
            "id": true,
            "key": false,
            "path": true,
            "published": true,
            "modificationDate": true,
            "creationDate": true
        },
        "search": {
            "id": true,
            "key": false,
            "path": true,
            "published": true,
            "modificationDate": true,
            "creationDate": true
        }
    }
}